%YAML 1.1
%TAG !u! tag:unity3d.com,2011:
--- !u!1 &100000
GameObject:
  m_ObjectHideFlags: 0
  m_PrefabParentObject: {fileID: 0}
  m_PrefabInternal: {fileID: 100100000}
  serializedVersion: 4
  m_Component:
  - 4: {fileID: 400000}
  - 114: {fileID: 11400000}
  m_Layer: 0
  m_Name: PipeMaterial
  m_TagString: Untagged
  m_Icon: {fileID: 0}
  m_NavMeshLayer: 0
  m_StaticEditorFlags: 0
  m_IsActive: 1
--- !u!4 &400000
Transform:
  m_ObjectHideFlags: 1
  m_PrefabParentObject: {fileID: 0}
  m_PrefabInternal: {fileID: 100100000}
  m_GameObject: {fileID: 100000}
  m_LocalRotation: {x: 0, y: 0, z: 0, w: 1}
  m_LocalPosition: {x: 0, y: 0, z: 0}
  m_LocalScale: {x: 1, y: 1, z: 1}
  m_Children: []
  m_Father: {fileID: 0}
  m_RootOrder: 0
--- !u!114 &11400000
MonoBehaviour:
  m_ObjectHideFlags: 1
  m_PrefabParentObject: {fileID: 0}
  m_PrefabInternal: {fileID: 100100000}
  m_GameObject: {fileID: 100000}
  m_Enabled: 1
  m_EditorHideFlags: 0
  m_Script: {fileID: 11500000, guid: 5a21887e1cf80db49978ff567bcdd66c, type: 3}
  m_Name: 
  m_EditorClassIdentifier: 
  fillMaterial: {fileID: 0}
  edgeMaterial: {fileID: 2100000, guid: 28520f0cd7081434186f4f8dc2363fb4, type: 2}
  descriptors:
  - applyTo: 0
    zOffset: 0
    yOffset: 0
    leftCap:
      serializedVersion: 2
      x: .02734375
      y: 0
      width: .09765625
      height: 1
    rightCap:
      serializedVersion: 2
      x: .875
      y: 0
      width: .07421875
      height: 1
    body:
    - serializedVersion: 2
      x: .125
      y: .078125
      width: .25
      height: .84375
    - serializedVersion: 2
      x: .375
      y: .078125
      width: .25
      height: .84375
    - serializedVersion: 2
      x: .625
      y: .078125
      width: .25
      height: .84375
    capOffset: 0
  - applyTo: 0
    zOffset: 0
    yOffset: 0
    leftCap:
      serializedVersion: 2
      x: 0
      y: 0
      width: 0
      height: 0
    rightCap:
      serializedVersion: 2
      x: 0
      y: 0
      width: 0
      height: 0
    body:
    - serializedVersion: 2
      x: 0
      y: 0
      width: .001953125
      height: .0078125
    capOffset: 0
  - applyTo: 0
    zOffset: 0
    yOffset: 0
    leftCap:
      serializedVersion: 2
      x: 0
      y: 0
      width: 0
      height: 0
    rightCap:
      serializedVersion: 2
      x: 0
      y: 0
      width: 0
      height: 0
    body:
    - serializedVersion: 2
      x: 0
      y: 0
      width: .001953125
      height: .0078125
    capOffset: 0
  - applyTo: 0
    zOffset: 0
    yOffset: 0
    leftCap:
      serializedVersion: 2
      x: 0
      y: 0
      width: 0
      height: 0
    rightCap:
      serializedVersion: 2
      x: 0
      y: 0
      width: 0
      height: 0
    body:
    - serializedVersion: 2
      x: 0
      y: 0
      width: .001953125
      height: .0078125
    capOffset: 0
  isPixel: 0
--- !u!1001 &100100000
Prefab:
  m_ObjectHideFlags: 1
  serializedVersion: 2
  m_Modification:
    m_TransformParent: {fileID: 0}
    m_Modifications: []
    m_RemovedComponents: []
  m_ParentPrefab: {fileID: 0}
  m_RootGameObject: {fileID: 100000}
  m_IsPrefabParent: 1
